{
   "path": "main/user",
   "includes": [
      "user/user_model.json",
      "user/user_form.json",
      "user/user_profile_model.json",
      "user/user_profile_form.json",
      "user/validator.json"
   ],
   "namespace": "user",
   "id": "user",
   "must": [
      {
         "text": "must implement <a href=\"/requirements/show/main/user/user_model\">[user.user_model]</a> requirement",
         "status": 0
      },
      {
         "text": "sdasd",
         "status": 0
      },
      {
         "text": "sdasd",
         "status": 0
      },
      {
         "text": "sdasd",
         "status": 0
      },
      {
         "text": "sdasd",
         "status": 0
      }
   ],
   "requirements": {
      "user_form": {
         "namespace": "user",
         "includes": [],
         "id": "user_form",
         "must": [
            {
               "text": "implement HTML5 form for all field from <<user.user_model>>",
               "status": 0
            },
            {
               "text": "have submit button to send form on server",
               "status": 0
            },
            {
               "text": "have CSRF token",
               "status": 0
            },
            {
               "text": "redirect to <<user.user_profile_form>> after success submit operation",
               "status": 0
            }
         ],
         "path": "main/user/user_form",
         "status": 0
      },
      "user_profile_form": {
         "namespace": "user",
         "includes": [],
         "id": "user_profile_form",
         "must": [
            {
               "text": "implement HTML5 form for all field from <<user.user_profile_model>>",
               "status": 0
            }
         ],
         "path": "main/user/user_profile_form",
         "status": 0
      },
      "validator": {
         "namespace": "user",
         "includes": [
            "validator/username.json",
            "validator/password.json",
            "validator/second_name.json",
            "validator/first_name.json"
         ],
         "id": "validator",
         "must": [],
         "requirements": {
            "first_name": {
               "namespace": "user",
               "includes": [],
               "id": "first_name",
               "must": [
                  {
                     "text": "be longer then 2 symbols",
                     "status": 0
                  },
                  {
                     "text": "have no white-spaces inside",
                     "status": 0
                  },
                  {
                     "text": "have no numbers inside",
                     "status": 0
                  }
               ],
               "path": "main/user/validator/first_name",
               "status": 0
            },
            "username": {
               "namespace": "user",
               "includes": [],
               "id": "username",
               "must": [
                  {
                     "text": "be an email only",
                     "status": 0
                  }
               ],
               "path": "main/user/validator/username",
               "status": 0
            },
            "second_name": {
               "namespace": "user",
               "includes": [],
               "id": "second_name",
               "must": [
                  {
                     "text": "same as <<user.first_name>>",
                     "status": 0
                  }
               ],
               "path": "main/user/validator/second_name",
               "status": 0
            },
            "password": {
               "namespace": "user",
               "includes": [],
               "id": "password",
               "must": [
                  {
                     "text": "be longer then 8 symbols",
                     "status": 0
                  },
                  {
                     "text": "have latin symbols",
                     "status": 0
                  },
                  {
                     "text": "have numbers",
                     "status": 0
                  },
                  {
                     "text": "have no white-spaces inside",
                     "status": 0
                  }
               ],
               "path": "main/user/validator/password",
               "status": 0
            }
         },
         "path": "main/user/validator",
         "status": 0
      },
      "user_profile_model": {
         "namespace": "user",
         "includes": [],
         "id": "user_profile_model",
         "must": [
            {
               "text": "have <<user.first_name>> field",
               "status": 0
            },
            {
               "text": "have <<user.second_name>> field",
               "status": 0
            }
         ],
         "path": "main/user/user_profile_model",
         "status": 0
      },
      "user_model": {
         "namespace": "user",
         "includes": [],
         "id": "user_model",
         "must": [
            {
               "text": "have <<user.username>> field",
               "status": 0
            },
            {
               "text": "have <<user.password>> field",
               "status": 0
            }
         ],
         "path": "main/user/user_model",
         "status": 0
      }
   },
   "status": 0
}