{
    "namespace": "user",
    "includes": [],
    "status": 0,
    "must": [
        {"text": "have <<user.username>> field", "status": 0},
        {"text": "have <<user.password>> field", "status": 0}
    ]
}
